material MaterialWinning
 {
    technique
    {
       pass MaterialWinning
       {
	  scene_blend alpha_blend
	  
          texture_unit
          {
            texture winning.tga
          }
       }
    }
 }