material MaterialIntro
 {
    technique
    {
       pass MaterialIntro
       {
	  scene_blend alpha_blend
	  
          texture_unit
          {
            texture intro.tga
          }
       }
    }
 }